NFL Attendance - DASC 1104 Caleb Williams
…
attendance2

## # A tibble: 31 x 6
##    team_name   home  year  wins  loss win_percent
##    <chr>      <dbl> <dbl> <dbl> <dbl>       <dbl>
##  1 Cardinals 387475  2000     3    13       0.188
##  2 Falcons   422814  2000     4    12       0.25 
##  3 Ravens    551695  2000    12     4       0.75 
##  4 Bills     560695  2000     8     8       0.5  
##  5 Panthers  583489  2000     7     9       0.438
##  6 Bears     535552  2000     5    11       0.312
##  7 Bengals   469992  2000     4    12       0.25 
##  8 Browns    581544  2000     3    13       0.188
##  9 Cowboys   504360  2000     5    11       0.312
## 10 Broncos   604042  2000    11     5       0.688
## # … with 21 more rows
…
